What You Can Tell About a State from Their Level of Education
…
# does the state with the highest education level also have
# the highest median household income?
mutate %>% select(state, PercentBachelorsOrHigher, median_house_inc) %>% 
    group_by(state) %>% arrange(desc(PercentBachelorsOrHigher))

## # A tibble: 53 x 3
## # Groups:   state [53]
##    state         PercentBachelorsOrHigher median_house_inc
##    <chr>                            <dbl>            <int>
##  1 Washington DC                     57.6               NA
##  2 Massachusetts                     42.9            63151
##  3 Colorado                          40.1            60940
##  4 Maryland                          39.6            76165
##  5 Connecticut                       38.9            70161
##  6 New Jersey                        38.9            65243
##  7 Virginia                          38.2            66155
##  8 Vermont                           37.3            60708
##  9 New Hampshire                     36.5            73397
## 10 New York                          35.9            54310
## # … with 43 more rows
…
